src/main/verilog/DataMemory.vcd
$version Generated by VerilatedVcd $end
$date Sat Jan  4 11:12:58 2025
 $end
$timescale   1ps $end

 $scope module TOP $end
  $var wire  1 # clock $end
  $var wire 32 % io_addr [31:0] $end
  $var wire 32 & io_dataIn [31:0] $end
  $var wire 32 ) io_dataOut [31:0] $end
  $var wire  1 ' io_mem_read $end
  $var wire  1 ( io_mem_write $end
  $var wire  1 $ reset $end
  $scope module DataMemory $end
   $var wire  1 # clock $end
   $var wire 32 % io_addr [31:0] $end
   $var wire 32 & io_dataIn [31:0] $end
   $var wire 32 ) io_dataOut [31:0] $end
   $var wire  1 ' io_mem_read $end
   $var wire  1 ( io_mem_write $end
   $var wire  1 $ reset $end
   $scope module Dmemory_ext $end
    $var wire 10 * R0_addr [9:0] $end
    $var wire  1 # R0_clk $end
    $var wire 32 + R0_data [31:0] $end
    $var wire  1 ' R0_en $end
    $var wire 10 * W0_addr [9:0] $end
    $var wire  1 # W0_clk $end
    $var wire 32 & W0_data [31:0] $end
    $var wire  1 ( W0_en $end
   $upscope $end
  $upscope $end
 $upscope $end
$enddefinitions $end


#5
0#
1$
b00000000000000000000000000000000 %
b00000000000000000000000000000000 &
0'
0(
b00000000000000000000000000000000 )
b0000000000 *
b00000000000000000000000000000000 +
#10
1#
#15
0#
0$
b00000000000000000000000101100111 %
b00110010011110110010001111000110 &
1(
b0101100111 *
#20
1#
#25
0#
1'
0(
b00110010011110110010001111000110 )
b00110010011110110010001111000110 +
#30
1#
#35
0#
b00000000000000000000000001101001 %
b01100110001100110100100001110011 &
0'
1(
b00000000000000000000000000000000 )
b0001101001 *
b00000000000000000000000000000000 +
#40
1#
#45
0#
1'
0(
b01100110001100110100100001110011 )
b01100110001100110100100001110011 +
#50
1#
#55
0#
b00000000000000000000000001010001 %
b00011001010010010101110011111111 &
0'
1(
b00000000000000000000000000000000 )
b0001010001 *
b00000000000000000000000000000000 +
#60
1#
#65
0#
1'
0(
b00011001010010010101110011111111 )
b00011001010010010101110011111111 +
#70
1#
#75
0#
b00000000000000000000000001001010 %
b01100010010101010101100011101100 &
0'
1(
b00000000000000000000000000000000 )
b0001001010 *
b00000000000000000000000000000000 +
#80
1#
#85
0#
1'
0(
b01100010010101010101100011101100 )
b01100010010101010101100011101100 +
#90
1#
#95
0#
b00000000000000000000001100101001 %
b01000110111010000111110011001101 &
0'
1(
b00000000000000000000000000000000 )
b1100101001 *
b00000000000000000000000000000000 +
#100
1#
#105
0#
1'
0(
b01000110111010000111110011001101 )
b01000110111010000111110011001101 +
#110
1#
#115
0#
b00000000000000000000000010111010 %
b01010000011111101101011110101011 &
0'
1(
b00000000000000000000000000000000 )
b0010111010 *
b00000000000000000000000000000000 +
#120
1#
#125
0#
1'
0(
b01010000011111101101011110101011 )
b01010000011111101101011110101011 +
#130
1#
#135
0#
b00000000000000000000000111110010 %
b01000001101101110001111011111011 &
0'
1(
b00000000000000000000000000000000 )
b0111110010 *
b00000000000000000000000000000000 +
#140
1#
#145
0#
1'
0(
b01000001101101110001111011111011 )
b01000001101101110001111011111011 +
#150
1#
#155
0#
b00000000000000000000000111100011 %
b01110101010001011110000101000110 &
0'
1(
b00000000000000000000000000000000 )
b0111100011 *
b00000000000000000000000000000000 +
#160
1#
#165
0#
1'
0(
b01110101010001011110000101000110 )
b01110101010001011110000101000110 +
#170
1#
#175
0#
b00000000000000000000000001111100 %
b01011011110100000110001011000010 &
0'
1(
b00000000000000000000000000000000 )
b0001111100 *
b00000000000000000000000000000000 +
#180
1#
#185
0#
1'
0(
b01011011110100000110001011000010 )
b01011011110100000110001011000010 +
#190
1#
#195
0#
b00000000000000000000000001010100 %
b01001101101100010010011111111000 &
0'
1(
b00000000000000000000000000000000 )
b0001010100 *
b00000000000000000000000000000000 +
#200
1#
#205
0#
1'
0(
b01001101101100010010011111111000 )
b01001101101100010010011111111000 +
#210
1#
#215
0#
b00000000000000000000001100011011 %
b00011111000101101110100111101000 &
0'
1(
b00000000000000000000000000000000 )
b1100011011 *
b00000000000000000000000000000000 +
#220
1#
#225
0#
1'
0(
b00011111000101101110100111101000 )
b00011111000101101110100111101000 +
#230
1#
#235
0#
b00000000000000000000000111100111 %
b01100110111011110100001110001101 &
0'
1(
b00000000000000000000000000000000 )
b0111100111 *
b00000000000000000000000000000000 +
#240
1#
#245
0#
1'
0(
b01100110111011110100001110001101 )
b01100110111011110100001110001101 +
#250
1#
#255
0#
b00000000000000000000001101110110 %
b00110011010100100010010101011010 &
0'
1(
b00000000000000000000000000000000 )
b1101110110 *
b00000000000000000000000000000000 +
#260
1#
#265
0#
1'
0(
b00110011010100100010010101011010 )
b00110011010100100010010101011010 +
#270
1#
#275
0#
b00000000000000000000000100101110 %
b00001101111011010111001001100011 &
0'
1(
b00000000000000000000000000000000 )
b0100101110 *
b00000000000000000000000000000000 +
#280
1#
#285
0#
1'
0(
b00001101111011010111001001100011 )
b00001101111011010111001001100011 +
#290
1#
#295
0#
b00000000000000000000001000110011 %
b00011011111011111101011110011111 &
0'
1(
b00000000000000000000000000000000 )
b1000110011 *
b00000000000000000000000000000000 +
#300
1#
#305
0#
1'
0(
b00011011111011111101011110011111 )
b00011011111011111101011110011111 +
#310
1#
#315
0#
b00000000000000000000000011001001 %
b01101011011010000000011110011010 &
0'
1(
b00000000000000000000000000000000 )
b0011001001 *
b00000000000000000000000000000000 +
#320
1#
#325
0#
1'
0(
b01101011011010000000011110011010 )
b01101011011010000000011110011010 +
#330
1#
#335
0#
b00000000000000000000001101100110 %
b00100101111001000101110100110010 &
0'
1(
b00000000000000000000000000000000 )
b1101100110 *
b00000000000000000000000000000000 +
#340
1#
#345
0#
1'
0(
b00100101111001000101110100110010 )
b00100101111001000101110100110010 +
#350
1#
#355
0#
b00000000000000000000000000001101 %
b01000011000110111101011110110111 &
0'
1(
b00000000000000000000000000000000 )
b0000001101 *
b00000000000000000000000000000000 +
#360
1#
#365
0#
1'
0(
b01000011000110111101011110110111 )
b01000011000110111101011110110111 +
#370
1#
#375
0#
b00000000000000000000001000110001 %
b01111100100000111110010001011000 &
0'
1(
b00000000000000000000000000000000 )
b1000110001 *
b00000000000000000000000000000000 +
#380
1#
#385
0#
1'
0(
b01111100100000111110010001011000 )
b01111100100000111110010001011000 +
#390
1#
#395
0#
b00000000000000000000000010100011 %
b01100010101110111101100101011010 &
0'
1(
b00000000000000000000000000000000 )
b0010100011 *
b00000000000000000000000000000000 +
#400
1#
#405
0#
1'
0(
b01100010101110111101100101011010 )
b01100010101110111101100101011010 +
#410
1#
#415
0#
b00000000000000000000000100100101 %
b01100010100011001000100101011101 &
0'
1(
b00000000000000000000000000000000 )
b0100100101 *
b00000000000000000000000000000000 +
#420
1#
#425
0#
1'
0(
b01100010100011001000100101011101 )
b01100010100011001000100101011101 +
#430
1#
#435
0#
b00000000000000000000000100000101 %
b01110010000111011010001100010111 &
0'
1(
b00000000000000000000000000000000 )
b0100000101 *
b00000000000000000000000000000000 +
#440
1#
#445
0#
1'
0(
b01110010000111011010001100010111 )
b01110010000111011010001100010111 +
#450
1#
#455
0#
b00000000000000000000000001011000 %
b00101101000111010101101011101001 &
0'
1(
b00000000000000000000000000000000 )
b0001011000 *
b00000000000000000000000000000000 +
#460
1#
#465
0#
1'
0(
b00101101000111010101101011101001 )
b00101101000111010101101011101001 +
#470
1#
#475
0#
b00000000000000000000000001011110 %
b01110101101000101010100011010100 &
0'
1(
b00000000000000000000000000000000 )
b0001011110 *
b00000000000000000000000000000000 +
#480
1#
#485
0#
1'
0(
b01110101101000101010100011010100 )
b01110101101000101010100011010100 +
#490
1#
#495
0#
b00000000000000000000000110101011 %
b01111001100000111000110010110010 &
0'
1(
b00000000000000000000000000000000 )
b0110101011 *
b00000000000000000000000000000000 +
#500
1#
#505
0#
1'
0(
b01111001100000111000110010110010 )
b01111001100000111000110010110010 +
#510
1#
#515
0#
b00000000000000000000000011001101 %
b00001011000000111110000011000110 &
0'
1(
b00000000000000000000000000000000 )
b0011001101 *
b00000000000000000000000000000000 +
#520
1#
#525
0#
1'
0(
b00001011000000111110000011000110 )
b00001011000000111110000011000110 +
#530
1#
#535
0#
b00000000000000000000001010011011 %
b01010100111001001001111010110100 &
0'
1(
b00000000000000000000000000000000 )
b1010011011 *
b00000000000000000000000000000000 +
#540
1#
#545
0#
1'
0(
b01010100111001001001111010110100 )
b01010100111001001001111010110100 +
#550
1#
#555
0#
b00000000000000000000000001010100 %
b00101100101010001000011000010001 &
0'
1(
b00000000000000000000000000000000 )
b0001010100 *
b00000000000000000000000000000000 +
#560
1#
#565
0#
1'
0(
b00101100101010001000011000010001 )
b00101100101010001000011000010001 +
#570
1#
#575
0#
b00000000000000000000000000001110 %
b00000010100100000001110110000010 &
0'
1(
b00000000000000000000000000000000 )
b0000001110 *
b00000000000000000000000000000000 +
#580
1#
#585
0#
1'
0(
b00000010100100000001110110000010 )
b00000010100100000001110110000010 +
#590
1#
#595
0#
b00000000000000000000000001110100 %
b00001000000100111000011001000001 &
0'
1(
b00000000000000000000000000000000 )
b0001110100 *
b00000000000000000000000000000000 +
#600
1#
#605
0#
1'
0(
b00001000000100111000011001000001 )
b00001000000100111000011001000001 +
